src/rust/tests/testbench.vcd
$date
	Fri Apr 25 16:44:33 2025
$end
$version
	Icarus Verilog
$end
$timescale
	1ps
$end
$scope module testbench $end
$var wire 1 ! trap $end
$var wire 4 " mem_wstrb [3:0] $end
$var wire 32 # mem_wdata [31:0] $end
$var wire 1 $ mem_valid $end
$var wire 1 % mem_instr $end
$var wire 32 & mem_addr [31:0] $end
$var reg 1 ' clk $end
$var reg 32 ( mem_rdata [31:0] $end
$var reg 1 ) mem_ready $end
$var reg 1 * resetn $end
$scope module uut $end
$var wire 1 ' clk $end
$var wire 32 + dbg_mem_addr [31:0] $end
$var wire 1 , dbg_mem_instr $end
$var wire 32 - dbg_mem_rdata [31:0] $end
$var wire 1 . dbg_mem_ready $end
$var wire 1 / dbg_mem_valid $end
$var wire 32 0 dbg_mem_wdata [31:0] $end
$var wire 4 1 dbg_mem_wstrb [3:0] $end
$var wire 1 2 instr_trap $end
$var wire 32 3 irq [31:0] $end
$var wire 1 4 launch_next_insn $end
$var wire 1 5 mem_done $end
$var wire 1 6 mem_la_firstword $end
$var wire 1 7 mem_la_firstword_xfer $end
$var wire 1 8 mem_la_read $end
$var wire 1 9 mem_la_use_prefetched_high_word $end
$var wire 1 : mem_la_write $end
$var wire 32 ; mem_rdata [31:0] $end
$var wire 32 < mem_rdata_latched [31:0] $end
$var wire 1 ) mem_ready $end
$var wire 1 = mem_xfer $end
$var wire 32 > pcpi_div_rd [31:0] $end
$var wire 1 ? pcpi_div_ready $end
$var wire 1 @ pcpi_div_wait $end
$var wire 1 A pcpi_div_wr $end
$var wire 32 B pcpi_mul_rd [31:0] $end
$var wire 1 C pcpi_mul_ready $end
$var wire 1 D pcpi_mul_wait $end
$var wire 1 E pcpi_mul_wr $end
$var wire 32 F pcpi_rd [31:0] $end
$var wire 1 G pcpi_ready $end
$var wire 32 H pcpi_rs1 [31:0] $end
$var wire 32 I pcpi_rs2 [31:0] $end
$var wire 1 J pcpi_wait $end
$var wire 1 K pcpi_wr $end
$var wire 1 * resetn $end
$var wire 32 L next_pc [31:0] $end
$var wire 32 M mem_rdata_latched_noshuffle [31:0] $end
$var wire 32 N mem_la_addr [31:0] $end
$var wire 1 O mem_busy $end
$var wire 1 P is_rdcycle_rdcycleh_rdinstr_rdinstrh $end
$var parameter 1 Q BARREL_SHIFTER $end
$var parameter 1 R CATCH_ILLINSN $end
$var parameter 1 S CATCH_MISALIGN $end
$var parameter 1 T COMPRESSED_ISA $end
$var parameter 1 U ENABLE_COUNTERS $end
$var parameter 1 V ENABLE_COUNTERS64 $end
$var parameter 1 W ENABLE_DIV $end
$var parameter 1 X ENABLE_FAST_MUL $end
$var parameter 1 Y ENABLE_IRQ $end
$var parameter 1 Z ENABLE_IRQ_QREGS $end
$var parameter 1 [ ENABLE_IRQ_TIMER $end
$var parameter 1 \ ENABLE_MUL $end
$var parameter 1 ] ENABLE_PCPI $end
$var parameter 1 ^ ENABLE_REGS_16_31 $end
$var parameter 1 _ ENABLE_REGS_DUALPORT $end
$var parameter 1 ` ENABLE_TRACE $end
$var parameter 32 a LATCHED_IRQ $end
$var parameter 1 b LATCHED_MEM_RDATA $end
$var parameter 32 c MASKED_IRQ $end
$var parameter 32 d PROGADDR_IRQ $end
$var parameter 32 e PROGADDR_RESET $end
$var parameter 1 f REGS_INIT_ZERO $end
$var parameter 32 g STACKADDR $end
$var parameter 36 h TRACE_ADDR $end
$var parameter 36 i TRACE_BRANCH $end
$var parameter 36 j TRACE_IRQ $end
$var parameter 1 k TWO_CYCLE_ALU $end
$var parameter 1 l TWO_CYCLE_COMPARE $end
$var parameter 1 m TWO_STAGE_SHIFT $end
$var parameter 1 n WITH_PCPI $end
$var parameter 8 o cpu_state_exec $end
$var parameter 8 p cpu_state_fetch $end
$var parameter 8 q cpu_state_ld_rs1 $end
$var parameter 8 r cpu_state_ld_rs2 $end
$var parameter 8 s cpu_state_ldmem $end
$var parameter 8 t cpu_state_shift $end
$var parameter 8 u cpu_state_stmem $end
$var parameter 8 v cpu_state_trap $end
$var parameter 32 w irq_buserror $end
$var parameter 32 x irq_ebreak $end
$var parameter 32 y irq_timer $end
$var parameter 32 z irqregs_offset $end
$var parameter 32 { regfile_size $end
$var parameter 32 | regindex_bits $end
$var reg 32 } alu_add_sub [31:0] $end
$var reg 1 ~ alu_eq $end
$var reg 1 !" alu_lts $end
$var reg 1 "" alu_ltu $end
$var reg 32 #" alu_out [31:0] $end
$var reg 1 $" alu_out_0 $end
$var reg 1 %" alu_out_0_q $end
$var reg 32 &" alu_out_q [31:0] $end
$var reg 32 '" alu_shl [31:0] $end
$var reg 32 (" alu_shr [31:0] $end
$var reg 1 )" alu_wait $end
$var reg 1 *" alu_wait_2 $end
$var reg 64 +" cached_ascii_instr [63:0] $end
$var reg 32 ," cached_insn_imm [31:0] $end
$var reg 32 -" cached_insn_opcode [31:0] $end
$var reg 5 ." cached_insn_rd [4:0] $end
$var reg 5 /" cached_insn_rs1 [4:0] $end
$var reg 5 0" cached_insn_rs2 [4:0] $end
$var reg 1 1" clear_prefetched_high_word $end
$var reg 1 2" clear_prefetched_high_word_q $end
$var reg 1 3" compressed_instr $end
$var reg 64 4" count_cycle [63:0] $end
$var reg 64 5" count_instr [63:0] $end
$var reg 8 6" cpu_state [7:0] $end
$var reg 32 7" cpuregs_rs1 [31:0] $end
$var reg 32 8" cpuregs_rs2 [31:0] $end
$var reg 32 9" cpuregs_wrdata [31:0] $end
$var reg 1 :" cpuregs_write $end
$var reg 32 ;" current_pc [31:0] $end
$var reg 64 <" dbg_ascii_instr [63:0] $end
$var reg 128 =" dbg_ascii_state [127:0] $end
$var reg 32 >" dbg_insn_addr [31:0] $end
$var reg 32 ?" dbg_insn_imm [31:0] $end
$var reg 32 @" dbg_insn_opcode [31:0] $end
$var reg 5 A" dbg_insn_rd [4:0] $end
$var reg 5 B" dbg_insn_rs1 [4:0] $end
$var reg 5 C" dbg_insn_rs2 [4:0] $end
$var reg 1 D" dbg_next $end
$var reg 32 E" dbg_rs1val [31:0] $end
$var reg 1 F" dbg_rs1val_valid $end
$var reg 32 G" dbg_rs2val [31:0] $end
$var reg 1 H" dbg_rs2val_valid $end
$var reg 1 I" dbg_valid_insn $end
$var reg 32 J" decoded_imm [31:0] $end
$var reg 32 K" decoded_imm_j [31:0] $end
$var reg 5 L" decoded_rd [4:0] $end
$var reg 5 M" decoded_rs [4:0] $end
$var reg 5 N" decoded_rs1 [4:0] $end
$var reg 5 O" decoded_rs2 [4:0] $end
$var reg 1 P" decoder_pseudo_trigger $end
$var reg 1 Q" decoder_pseudo_trigger_q $end
$var reg 1 R" decoder_trigger $end
$var reg 1 S" decoder_trigger_q $end
$var reg 1 T" do_waitirq $end
$var reg 32 U" eoi [31:0] $end
$var reg 1 V" instr_add $end
$var reg 1 W" instr_addi $end
$var reg 1 X" instr_and $end
$var reg 1 Y" instr_andi $end
$var reg 1 Z" instr_auipc $end
$var reg 1 [" instr_beq $end
$var reg 1 \" instr_bge $end
$var reg 1 ]" instr_bgeu $end
$var reg 1 ^" instr_blt $end
$var reg 1 _" instr_bltu $end
$var reg 1 `" instr_bne $end
$var reg 1 a" instr_ecall_ebreak $end
$var reg 1 b" instr_fence $end
$var reg 1 c" instr_getq $end
$var reg 1 d" instr_jal $end
$var reg 1 e" instr_jalr $end
$var reg 1 f" instr_lb $end
$var reg 1 g" instr_lbu $end
$var reg 1 h" instr_lh $end
$var reg 1 i" instr_lhu $end
$var reg 1 j" instr_lui $end
$var reg 1 k" instr_lw $end
$var reg 1 l" instr_maskirq $end
$var reg 1 m" instr_or $end
$var reg 1 n" instr_ori $end
$var reg 1 o" instr_rdcycle $end
$var reg 1 p" instr_rdcycleh $end
$var reg 1 q" instr_rdinstr $end
$var reg 1 r" instr_rdinstrh $end
$var reg 1 s" instr_retirq $end
$var reg 1 t" instr_sb $end
$var reg 1 u" instr_setq $end
$var reg 1 v" instr_sh $end
$var reg 1 w" instr_sll $end
$var reg 1 x" instr_slli $end
$var reg 1 y" instr_slt $end
$var reg 1 z" instr_slti $end
$var reg 1 {" instr_sltiu $end
$var reg 1 |" instr_sltu $end
$var reg 1 }" instr_sra $end
$var reg 1 ~" instr_srai $end
$var reg 1 !# instr_srl $end
$var reg 1 "# instr_srli $end
$var reg 1 ## instr_sub $end
$var reg 1 $# instr_sw $end
$var reg 1 %# instr_timer $end
$var reg 1 &# instr_waitirq $end
$var reg 1 '# instr_xor $end
$var reg 1 (# instr_xori $end
$var reg 1 )# irq_active $end
$var reg 1 *# irq_delay $end
$var reg 32 +# irq_mask [31:0] $end
$var reg 32 ,# irq_pending [31:0] $end
$var reg 2 -# irq_state [1:0] $end
$var reg 1 .# is_alu_reg_imm $end
$var reg 1 /# is_alu_reg_reg $end
$var reg 1 0# is_beq_bne_blt_bge_bltu_bgeu $end
$var reg 1 1# is_compare $end
$var reg 1 2# is_jalr_addi_slti_sltiu_xori_ori_andi $end
$var reg 1 3# is_lb_lh_lw_lbu_lhu $end
$var reg 1 4# is_lbu_lhu_lw $end
$var reg 1 5# is_lui_auipc_jal $end
$var reg 1 6# is_lui_auipc_jal_jalr_addi_add_sub $end
$var reg 1 7# is_sb_sh_sw $end
$var reg 1 8# is_sll_srl_sra $end
$var reg 1 9# is_slli_srli_srai $end
$var reg 1 :# is_slti_blt_slt $end
$var reg 1 ;# is_sltiu_bltu_sltu $end
$var reg 1 <# last_mem_valid $end
$var reg 1 =# latched_branch $end
$var reg 1 ># latched_compr $end
$var reg 1 ?# latched_is_lb $end
$var reg 1 @# latched_is_lh $end
$var reg 1 A# latched_is_lu $end
$var reg 5 B# latched_rd [4:0] $end
$var reg 1 C# latched_stalu $end
$var reg 1 D# latched_store $end
$var reg 1 E# latched_trace $end
$var reg 32 F# mem_addr [31:0] $end
$var reg 1 G# mem_do_prefetch $end
$var reg 1 H# mem_do_rdata $end
$var reg 1 I# mem_do_rinst $end
$var reg 1 J# mem_do_wdata $end
$var reg 1 % mem_instr $end
$var reg 1 K# mem_la_firstword_reg $end
$var reg 1 L# mem_la_secondword $end
$var reg 32 M# mem_la_wdata [31:0] $end
$var reg 4 N# mem_la_wstrb [3:0] $end
$var reg 32 O# mem_rdata_q [31:0] $end
$var reg 32 P# mem_rdata_word [31:0] $end
$var reg 2 Q# mem_state [1:0] $end
$var reg 1 $ mem_valid $end
$var reg 32 R# mem_wdata [31:0] $end
$var reg 2 S# mem_wordsize [1:0] $end
$var reg 4 T# mem_wstrb [3:0] $end
$var reg 64 U# new_ascii_instr [63:0] $end
$var reg 32 V# next_insn_opcode [31:0] $end
$var reg 32 W# next_irq_pending [31:0] $end
$var reg 32 X# pcpi_insn [31:0] $end
$var reg 32 Y# pcpi_int_rd [31:0] $end
$var reg 1 Z# pcpi_int_ready $end
$var reg 1 [# pcpi_int_wait $end
$var reg 1 \# pcpi_int_wr $end
$var reg 1 ]# pcpi_timeout $end
$var reg 1 ^# pcpi_valid $end
$var reg 1 _# prefetched_high_word $end
$var reg 64 `# q_ascii_instr [63:0] $end
$var reg 32 a# q_insn_imm [31:0] $end
$var reg 32 b# q_insn_opcode [31:0] $end
$var reg 5 c# q_insn_rd [4:0] $end
$var reg 5 d# q_insn_rs1 [4:0] $end
$var reg 5 e# q_insn_rs2 [4:0] $end
$var reg 32 f# reg_next_pc [31:0] $end
$var reg 32 g# reg_op1 [31:0] $end
$var reg 32 h# reg_op2 [31:0] $end
$var reg 32 i# reg_out [31:0] $end
$var reg 32 j# reg_pc [31:0] $end
$var reg 5 k# reg_sh [4:0] $end
$var reg 1 l# set_mem_do_rdata $end
$var reg 1 m# set_mem_do_rinst $end
$var reg 1 n# set_mem_do_wdata $end
$var reg 32 o# timer [31:0] $end
$var reg 36 p# trace_data [35:0] $end
$var reg 1 q# trace_valid $end
$var reg 1 ! trap $end
$scope begin genblk1 $end
$upscope $end
$scope begin genblk2 $end
$upscope $end
$scope begin genblk3 $end
$upscope $end
$scope task empty_statement $end
$upscope $end
$upscope $end
$upscope $end
$enddefinitions $end
$comment Show the parameter values. $end
$dumpall
b101 |
b100000 {
b100000 z
b0 y
b1 x
b10 w
b10000000 v
b10 u
b100 t
b1 s
b10000 r
b100000 q
b1000000 p
b1000 o
0n
1m
0l
0k
b100000000000000000000000000000000000 j
b100000000000000000000000000000000 i
b1000000000000000000000000000000000 h
b11111111111111111111111111111111 g
0f
b0 e
b10000 d
b0 c
0b
b11111111111111111111111111111111 a
0`
1_
1^
0]
0\
1[
1Z
0Y
0X
0W
1V
1U
0T
1S
1R
0Q
$end
#0
$dumpvars
0q#
bx p#
b0 o#
0n#
0m#
0l#
bx k#
b0 j#
bx i#
bx h#
bx g#
b0 f#
bx e#
bx d#
bx c#
bx b#
bx a#
bx `#
0_#
0^#
0]#
0\#
0[#
0Z#
bx Y#
bx X#
b0 W#
bx V#
b0 U#
bx T#
bx S#
bx R#
b0 Q#
bx P#
bx O#
bx N#
bx M#
0L#
0K#
0J#
0I#
0H#
0G#
bx F#
0E#
0D#
0C#
bx B#
0A#
0@#
0?#
x>#
0=#
0<#
x;#
x:#
x9#
x8#
x7#
x6#
x5#
x4#
x3#
x2#
01#
00#
x/#
x.#
b0 -#
b0 ,#
b11111111111111111111111111111111 +#
0*#
0)#
0(#
0'#
x&#
x%#
x$#
0##
x"#
0!#
x~"
0}"
0|"
0{"
0z"
0y"
xx"
0w"
xv"
xu"
xt"
xs"
xr"
xq"
xp"
xo"
0n"
0m"
xl"
xk"
xj"
xi"
xh"
xg"
xf"
xe"
xd"
xc"
0b"
xa"
0`"
0_"
0^"
0]"
0\"
0["
xZ"
0Y"
0X"
0W"
0V"
b0 U"
0T"
xS"
0R"
xQ"
0P"
bx O"
bx N"
bx M"
bx L"
bx K"
bx J"
0I"
xH"
bx G"
xF"
bx E"
xD"
bx C"
bx B"
bx A"
bx @"
bx ?"
bx >"
b110011001100101011101000110001101101000 ="
bx <"
bx ;"
0:"
bx 9"
bx 8"
bx 7"
b1000000 6"
b0 5"
b0 4"
x3"
x2"
01"
bx 0"
bx /"
bx ."
bx -"
bx ,"
bx +"
0*"
0)"
bx ("
bx '"
bx &"
x%"
x$"
bx #"
x""
x!"
x~
bx }
xP
0O
bx00 N
bx M
b0 L
zK
zJ
bx I
bx H
zG
bz F
0E
0D
0C
bx B
0A
0@
0?
bx >
0=
bx <
bx ;
0:
09
08
07
06
05
04
bz 3
x2
bx 1
bx 0
0/
x.
bx -
x,
bx +
0*
x)
bx (
1'
bx &
x%
0$
bx #
bx "
0!
$end
#5000
0'
#10000
0.
0)
0Q"
0S"
02"
0;#
0:#
0D"
b0 W#
1'
#15000
0'
#20000
b0 W#
1'
#25000
0'
#30000
b0 W#
1'
#35000
0'
#40000
b0 W#
1'
#45000
0'
#50000
b0 W#
1'
#55000
0'
#60000
b0 W#
1'
#65000
0'
#70000
b0 W#
1'
#75000
0'
#80000
b0 W#
1'
#85000
0'
#90000
b0 W#
1'
#95000
0'
#100000
b0 W#
1'
#105000
0'
#110000
b0 W#
1'
#115000
0'
#120000
b0 W#
1'
#125000
0'
#130000
b0 W#
1'
#135000
0'
#140000
b0 W#
1'
#145000
0'
#150000
b0 W#
1'
#155000
0'
#160000
b0 W#
1'
#165000
0'
#170000
b0 W#
1'
#175000
0'
#180000
b0 W#
1'
#185000
0'
#190000
b0 W#
1'
#195000
0'
#200000
b0 W#
1'
#205000
0'
#210000
b0 W#
1'
#215000
0'
#220000
b0 W#
1'
#225000
0'
#230000
b0 W#
1'
#235000
0'
#240000
b0 W#
1'
#245000
0'
#250000
b0 W#
1'
#255000
0'
#260000
b0 W#
1'
#265000
0'
#270000
b0 W#
1'
#275000
0'
#280000
b0 W#
1'
#285000
0'
#290000
b0 W#
1'
#295000
0'
#300000
b0 W#
1'
#305000
0'
#310000
b0 W#
1'
#315000
0'
#320000
b0 W#
1'
#325000
0'
#330000
b0 W#
1'
#335000
0'
#340000
b0 W#
1'
#345000
0'
#350000
b0 W#
1'
#355000
0'
#360000
b0 W#
1'
#365000
0'
#370000
b0 W#
1'
#375000
0'
#380000
b0 W#
1'
#385000
0'
#390000
b0 W#
1'
#395000
0'
#400000
b0 W#
1'
#405000
0'
#410000
b0 W#
1'
#415000
0'
#420000
b0 W#
1'
#425000
0'
#430000
b0 W#
1'
#435000
0'
#440000
b0 W#
1'
#445000
0'
#450000
b0 W#
1'
#455000
0'
#460000
b0 W#
1'
#465000
0'
#470000
b0 W#
1'
#475000
0'
#480000
b0 W#
1'
#485000
0'
#490000
b0 W#
1'
#495000
0'
#500000
b0 W#
1'
#505000
0'
#510000
b0 W#
1'
#515000
0'
#520000
b0 W#
1'
#525000
0'
#530000
b0 W#
1'
#535000
0'
#540000
b0 W#
1'
#545000
0'
#550000
b0 W#
1'
#555000
0'
#560000
b0 W#
1'
#565000
0'
#570000
b0 W#
1'
#575000
0'
#580000
b0 W#
1'
#585000
0'
#590000
b0 W#
1'
#595000
0'
#600000
b0 W#
1'
#605000
0'
#610000
b0 W#
1'
#615000
0'
#620000
b0 W#
1'
#625000
0'
#630000
b0 W#
1'
#635000
0'
#640000
b0 W#
1'
#645000
0'
#650000
b0 W#
1'
#655000
0'
#660000
b0 W#
1'
#665000
0'
#670000
b0 W#
1'
#675000
0'
#680000
b0 W#
1'
#685000
0'
#690000
b0 W#
1'
#695000
0'
#700000
b0 W#
1'
#705000
0'
#710000
b0 W#
1'
#715000
0'
#720000
b0 W#
1'
#725000
0'
#730000
b0 W#
1'
#735000
0'
#740000
b0 W#
1'
#745000
0'
#750000
b0 W#
1'
#755000
0'
#760000
b0 W#
1'
#765000
0'
#770000
b0 W#
1'
#775000
0'
#780000
b0 W#
1'
#785000
0'
#790000
b0 W#
1'
#795000
0'
#800000
b0 W#
1'
#805000
0'
#810000
b0 W#
1'
#815000
0'
#820000
b0 W#
1'
#825000
0'
#830000
b0 W#
1'
#835000
0'
#840000
b0 W#
1'
#845000
0'
#850000
b0 W#
1'
#855000
0'
#860000
b0 W#
1'
#865000
0'
#870000
b0 W#
1'
#875000
0'
#880000
b0 W#
1'
#885000
0'
#890000
b0 W#
1'
#895000
0'
#900000
b0 W#
1'
#905000
0'
#910000
b0 W#
1'
#915000
0'
#920000
b0 W#
1'
#925000
0'
#930000
b0 W#
1'
#935000
0'
#940000
b0 W#
1'
#945000
0'
#950000
b0 W#
1'
#955000
0'
#960000
b0 W#
1'
#965000
0'
#970000
b0 W#
1'
#975000
0'
#980000
b0 W#
1'
#985000
0'
#990000
b0 W#
1'
#995000
0'
#1000000
1*
b0 W#
1'
#1005000
0'
#1010000
18
b0 N
b1111 N#
bx ,#
b0 S#
1O
1I#
b1 4"
bx ;"
bx W#
1'
#1015000
0'
#1020000
08
b1 Q#
1,
1%
1/
1$
b0 1
b0 "
b0 T#
b0 +
b0 &
b0 F#
b10 4"
bx ;"
1'
#1025000
0'
#1030000
15
b111111110000000000000010010011 <
b111111110000000000000010010011 M
1=
b111111110000000000000010010011 P#
b111111110000000000000010010011 -
b111111110000000000000010010011 (
b111111110000000000000010010011 ;
1.
1)
b11 4"
1<#
bx ;"
1'
#1035000
0'
#1040000
05
bx00 N
14
0=
b0 7"
b0 Q#
0/
0$
0<#
b111111110000000000000010010011 V#
b111111110000000000000010010011 O#
03"
b11100 O"
b0 N"
b1 L"
b1111111100 K"
0/#
1.#
07#
03#
0&#
0s"
0e"
0d"
0Z"
0j"
0O
0I#
1R"
b100 4"
0.
0)
bx ;"
1'
#1045000
0'
#1050000
18
b100 N
04
b11011000110010001011111011100100111001100110001 ="
b100 L
02
b1100001011001000110010001101001 U#
b1 A"
b11100 C"
b0 B"
b1111111100 ?"
b111111110000000000000010010011 @"
b1100001011001000110010001101001 <"
b100000 6"
1O
1G#
b1 5"
b100 f#
0>#
b1 B#
1S"
0R"
b101 4"
0H"
0F"
b1111111100 J"
08#
12#
09#
0%#
0l"
0u"
0c"
0a"
0P
0r"
0q"
0p"
0o"
0~"
0"#
0x"
1W"
0$#
0v"
0t"
0i"
0g"
0k"
0h"
0f"
06#
05#
b0 >"
1I"
1D"
bx ;"
1'
#1055000
0'
#1060000
08
b1100101011110000110010101100011 ="
b1111111100 #"
b1111111100 M#
b0 ("
b0 '"
1""
1!"
0~
b1111111100 }
b1 Q#
1/
1$
b100 +
b100 &
b100 F#
b1 ."
b11100 0"
b0 /"
b111111110000000000000010010011 -"
b1111111100 ,"
b1100001011001000110010001101001 +"
0D"
b1 c#
b11100 e#
b0 d#
b111111110000000000000010010011 b#
b1111111100 a#
b1100001011001000110010001101001 `#
04#
16#
b1000 6"
1I#
b1111111100 I
b1111111100 h#
1F"
b0 E"
b0 H
b0 g#
0S"
b110 4"
1'
#1065000
0'
#1070000
15
b1010000000100011 <
b1010000000100011 M
1=
b1010000000100011 P#
b110011001100101011101000110001101101000 ="
1:"
b1111111100 9"
b1010000000100011 -
b1010000000100011 (
b1010000000100011 ;
1.
1)
b1000000 6"
1C#
1D#
b1111111100 i#
b111 4"
b1111111100 &"
1<#
1'
#1075000
0'
#1080000
05
b0 N
14
0=
b0 8"
b1111111100 7"
bx 9"
0:"
b0 Q#
0/
0$
0<#
b1010000000100011 V#
b1010000000100011 O#
b0 O"
b1 N"
b0 L"
b1010000000000000 K"
0.#
17#
0O
0I#
0G#
0C#
0D#
b100 j#
1R"
b1000 4"
bx i#
0.
0)
bx ;"
1'
#1085000
0'
#1090000
18
b1000 N
04
b111001101110111 <"
b11011000110010001011111011100100111001100110001 ="
b1000 L
bx #"
b111001101110111 U#
b0 A"
b0 C"
b1 B"
b0 ?"
b1010000000100011 @"
b100000 6"
1O
1G#
b10 5"
b1000 f#
b0 B#
1S"
0R"
b1001 4"
0F"
bx E"
b0 J"
06#
02#
0W"
1$#
b100 >"
1D"
bx ;"
1'
#1095000
0'
#1100000
08
b111001101110100011011010110010101101101 ="
b0 M#
b1111111100 ("
b1111111100 '"
0""
0!"
b1 Q#
1/
1$
b1000 +
b1000 &
b1000 F#
b0 ."
b0 0"
b1 /"
b1010000000100011 -"
b0 ,"
b111001101110111 +"
0D"
b0 c#
b0 e#
b1 d#
b1010000000100011 b#
b0 a#
b111001101110111 `#
1I#
b10 6"
1H"
b0 G"
b0 k#
1F"
b1111111100 E"
b0 I
b0 h#
b1111111100 H
b1111111100 g#
0S"
b1010 4"
bx &"
1'
#1105000
0'
#1110000
15
b1010000100000011 <
b1010000100000011 M
1=
b1010000100000011 P#
b1010000100000011 -
b1010000100000011 (
b1010000100000011 ;
1.
1)
b1011 4"
bx k#
1<#
1'
#1115000
0'
#1120000
05
1:
b1111111100 N
0=
b0 Q#
0/
0$
0<#
b1010000100000011 V#
b1010000100000011 O#
b10 L"
07#
13#
1J#
1O
0I#
0G#
1R"
b1100 4"
0.
0)
1n#
1'
#1125000
0'
#1130000
0:
b110110001110111 U#
1S"
0R"
b1101 4"
0$#
1k"
b10 Q#
0,
0%
1/
1$
b0 0
b0 #
b0 R#
b1111 1
b1111 "
b1111 T#
b1111111100 +
b1111111100 &
b1111111100 F#
0n#
1'
#1135000
0'
#1140000
15
bx <
bx M
1=
bx P#
1<#
b10 ."
b1010000100000011 -"
b110110001110111 +"
14#
0S"
b1110 4"
bx -
bx (
bx ;
1.
1)
1'
#1145000
0'
#1150000
05
0=
14
b110011001100101011101000110001101101000 ="
b0 Q#
0/
0$
0.
0)
0O
0J#
1P"
1R"
b1000000 6"
b1111 4"
bx V#
bx O#
0<#
1'
#1155000
0'
#1160000
18
b1100 N
04
b11011000110010001011111011100100111001100110001 ="
b1100 L
b10 A"
b1010000100000011 @"
b110110001110111 <"
b1000 >"
1D"
b100000 6"
1O
1G#
b11 5"
b1100 f#
b10 B#
b1000 j#
1Q"
0P"
1S"
0R"
b10000 4"
0H"
0F"
bx G"
bx E"
bx ;"
1'
#1165000
0'
#1170000
08
b110110001100100011011010110010101101101 ="
bx M#
bx ("
bx '"
x""
x!"
x~
bx }
b1 Q#
1,
1%
1/
1$
b0 1
b0 "
b0 T#
b1100 +
b1100 &
b1100 F#
1I#
b1 6"
1F"
b1111111100 E"
bx I
bx h#
b1111111100 H
b1111111100 g#
0Q"
0S"
b10001 4"
b0xxxxxxxxxxxxxxxx -"
0D"
b10 c#
b1010000100000011 b#
b110110001110111 `#
1'
#1175000
0'
#1180000
15
b100010000000100010011 <
b100010000000100010011 M
1=
b100010000000100010011 P#
1<#
1D#
b10010 4"
b100010000000100010011 -
b100010000000100010011 (
b100010000000100010011 ;
1.
1)
1'
#1185000
0'
#1190000
05
18
0=
b1111111100 N
b1111111100 8"
bx 7"
b0 Q#
0/
0$
0.
0)
1H#
1O
0I#
0G#
1A#
1R"
b10011 4"
b1 O"
b10 N"
b10000100000000000 K"
1.#
03#
b100010000000100010011 V#
b100010000000100010011 O#
0<#
1l#
1'
#1195000
0'
#1200000
08
b1100001011001000110010001101001 U#
b1 J"
12#
1W"
0k"
1S"
0R"
b10100 4"
b1 Q#
0,
0%
1/
1$
b1111111100 +
b1111111100 &
b1111111100 F#
0l#
1'
#1205000
0'
#1210000
15
b0 <
b0 M
1=
b0 P#
b0 -
b0 (
b0 ;
1.
1)
0S"
b10101 4"
04#
16#
b1 0"
b10 /"
b100010000000100010011 -"
b1 ,"
b1100001011001000110010001101001 +"
1<#
1'
#1215000
0'
#1220000
05
14
0=
b110011001100101011101000110001101101000 ="
1:"
b0 9"
b0 Q#
0/
0$
0<#
b0 V#
b0 O#
0O
0H#
b1000000 6"
1P"
1R"
b0 i#
b10110 4"
0.
0)
1'
#1225000
0'
#1230000
18
b10000 N
04
b11011000110010001011111011100100111001100110001 ="
b10000 L
bx 9"
0:"
b0 7"
b1 C"
b10 B"
b100010000000100010011 @"
b1 ?"
b1100001011001000110010001101001 <"
b100000 6"
1O
1G#
b100 5"
b10000 f#
0A#
0D#
b1100 j#
1Q"
0P"
1S"
0R"
b10111 4"
0F"
bx E"
bx i#
b1100 >"
1D"
bx ;"
1'
#1235000
0'
#1240000
08
b1100101011110000110010101100011 ="
b1 #"
b1 M#
b0 ("
b0 '"
1""
1!"
0~
b1 }
b1 Q#
1,
1%
1/
1$
b10000 +
b10000 &
b10000 F#
b0 -"
0D"
b1 e#
b10 d#
b100010000000100010011 b#
b1 a#
b1100001011001000110010001101001 `#
b1000 6"
1I#
b1 I
b1 h#
1F"
b0 E"
b0 H
b0 g#
0Q"
0S"
b11000 4"
1'
#1245000
0'
#1250000
15
b1000001010000000100011 <
b1000001010000000100011 M
1=
b1000001010000000100011 P#
b110011001100101011101000110001101101000 ="
1:"
b1 9"
b1000001010000000100011 -
b1000001010000000100011 (
b1000001010000000100011 ;
1.
1)
b1000000 6"
1C#
1D#
b1101 i#
b11001 4"
b1 &"
1<#
1'
#1255000
0'
#1260000
05
b0 N
14
0=
b1 8"
b1111111100 7"
bx 9"
0:"
b0 Q#
0/
0$
0<#
b1000001010000000100011 V#
b1000001010000000100011 O#
b10 O"
b1 N"
b0 L"
b1010000000000010 K"
0.#
17#
0O
0I#
0G#
0C#
0D#
b10000 j#
1R"
b11010 4"
bx i#
0.
0)
bx ;"
1'
#1265000
0'
#1270000
18
b10100 N
04
b111001101110111 <"
b11011000110010001011111011100100111001100110001 ="
b10100 L
bx #"
b111001101110111 U#
b0 A"
b10 C"
b1 B"
b0 ?"
b1000001010000000100011 @"
b100000 6"
1O
1G#
b101 5"
b10100 f#
b0 B#
1S"
0R"
b11011 4"
0F"
bx E"
b0 J"
06#
02#
0W"
1$#
b10000 >"
1D"
bx ;"
1'
#1275000
0'
#1280000
08
b111001101110100011011010110010101101101 ="
b111111110 ("
b11111111000 '"
0""
0!"
b1111111101 }
b1 Q#
1/
1$
b10100 +
b10100 &
b10100 F#
b0 ."
b10 0"
b1 /"
b1000001010000000100011 -"
b0 ,"
b111001101110111 +"
0D"
b0 c#
b10 e#
b1 d#
b1000001010000000100011 b#
b0 a#
b111001101110111 `#
1I#
b10 6"
1H"
b1 G"
b1 k#
1F"
b1111111100 E"
b1 I
b1 h#
b1111111100 H
b1111111100 g#
0S"
b11100 4"
bx &"
1'
#1285000
0'
#1290000
15
b11111111010111111111000001101111 <
b11111111010111111111000001101111 M
1=
b11111111010111111111000001101111 P#
b11111111010111111111000001101111 -
b11111111010111111111000001101111 (
b11111111010111111111000001101111 ;
1.
1)
b11101 4"
bx k#
1<#
1'
#1295000
0'
#1300000
05
1:
b1111111100 N
0=
bx 8"
bx 7"
b111001101110111 U#
b0 Q#
0/
0$
0<#
b11111111010111111111000001101111 V#
b11111111010111111111000001101111 O#
b10101 O"
b11111 N"
b11111111111111111111111111110100 K"
07#
1d"
1J#
1O
0I#
0G#
1R"
b11110 4"
0.
0)
1n#
1'
#1305000
0'
#1310000
0:
b11010100110000101101100 U#
1S"
0R"
b11111 4"
b11111111111111111111111111110100 J"
0$#
06#
15#
b10 Q#
0,
0%
1/
1$
b1 0
b1 #
b1 R#
b1111 1
b1111 "
b1111 T#
b1111111100 +
b1111111100 &
b1111111100 F#
0n#
1'
#1315000
0'
#1320000
15
b0 <
b0 M
1=
b1111111101 #"
b0 P#
1<#
b10101 0"
b11111 /"
b11111111010111111111000001101111 -"
b11111111111111111111111111110100 ,"
b11010100110000101101100 +"
16#
0S"
b100000 4"
b0 -
b0 (
b0 ;
1.
1)
1'
#1325000
0'
#1330000
05
0=
14
b110011001100101011101000110001101101000 ="
b0 Q#
0/
0$
0.
0)
0O
0J#
1P"
1R"
b1000000 6"
b100001 4"
b1111111101 &"
b0 V#
b0 O#
0<#
1'
#1335000
0'
